…
``` r
penguins = penguins |> 
  select(species, bill_length_mm, flipper_length_mm) |> 
  drop_na()

kmeans_fit = penguins |> 
  select(-species) |>
  scale() |> 
  kmeans(centers = 3)

penguins |> 
  broom::augment(kmeans_fit, data = _)
```

    ## # A tibble: 342 × 4
    ##    species bill_length_mm flipper_length_mm .cluster
    ##    <fct>            <dbl>             <int> <fct>   
    ##  1 Adelie            39.1               181 3       
    ##  2 Adelie            39.5               186 3       
    ##  3 Adelie            40.3               195 3       
    ##  4 Adelie            36.7               193 3       
    ##  5 Adelie            39.3               190 3       
    ##  6 Adelie            38.9               181 3       
    ##  7 Adelie            39.2               195 3       
    ##  8 Adelie            34.1               193 3       
    ##  9 Adelie            42                 190 3       
    ## 10 Adelie            37.8               186 3       
    ## # ℹ 332 more rows
…
